<svg width="40" height="40" viewBox="0 0 40 40" fill="none" xmlns="http://www.w3.org/2000/svg">
<path d="M35.2891 6.09375H4.71094C2.71875 6.09375 1.09375 7.71875 1.09375 9.71094V26.5469C1.09375 28.5391 2.71875 30.1641 4.71094 30.1641H35.2969C37.2891 30.1641 38.9141 28.5391 38.9141 26.5469V9.71094C38.9062 7.71875 37.2812 6.09375 35.2891 6.09375ZM36.7188 26.5391C36.7188 27.3281 36.0781 27.9688 35.2891 27.9688H4.71094C3.92188 27.9688 3.28125 27.3281 3.28125 26.5391V9.71094C3.28125 8.92188 3.92188 8.28125 4.71094 8.28125H35.2969C36.0859 8.28125 36.7266 8.92188 36.7266 9.71094V26.5391H36.7188Z" fill="#9A99A2"/>
<path d="M34.0625 10H5.9375C5.42188 10 5 10.4219 5 10.9375V25.3125C5 25.8281 5.42188 26.25 5.9375 26.25H34.0625C34.5781 26.25 35 25.8281 35 25.3125V10.9375C35 10.4219 34.5781 10 34.0625 10ZM28.9062 31.7188H11.0938C10.4922 31.7188 10 32.2109 10 32.8125C10 33.4141 10.4922 33.9062 11.0938 33.9062H28.9062C29.5078 33.9062 30 33.4141 30 32.8125C30 32.2109 29.5078 31.7188 28.9062 31.7188Z" fill="#9A99A2"/>
</svg>
